PM 566 Homework 2
…
multi_airlines <- flights %>%
  filter(!is.na(tailnum)) %>%
  group_by(tailnum) %>%
  filter(n_distinct(carrier) > 1) 

unique(multi_airlines$tailnum)

 [1] "N978AT" "N977AT" "N935AT" "N232PQ" "N933AT" "N990AT" "N146PQ" "N153PQ"
 [9] "N981AT" "N979AT" "N181PQ" "N989AT" "N176PQ" "N228PQ" "N994AT" "N200PQ"
[17] "N197PQ"

multi_airlines %>% count(carrier)

# A tibble: 34 × 3
# Groups:   tailnum [17]
   tailnum carrier     n
   <chr>   <chr>   <int>
 1 N146PQ  9E          8
 2 N146PQ  EV         36
 3 N153PQ  9E          5
 4 N153PQ  EV         26
 5 N176PQ  9E          7
 6 N176PQ  EV         21
 7 N181PQ  9E          4
 8 N181PQ  EV         35
 9 N197PQ  9E          2
10 N197PQ  EV         31
# ℹ 24 more rows
…
