PM 566 Lab 6
…
#1

There are 40 different specialties/categories. Some of these categories are not medical specialties; some of them are types of note/records, such as SOAP notes and discharge summaries. The medical specialties seem mostly independent, but there are definitely some that are more related, such as neurology and neurosurgery. The surgery category has the most observations, at over 1000 observations. The majority of the rest of the categories have at least a few dozen to several hundred observations.

mt_samples %>%
  count(medical_specialty, sort = T)

# A tibble: 40 × 2
   medical_specialty                 n
   <chr>                         <int>
 1 Surgery                        1103
 2 Consult - History and Phy.      516
 3 Cardiovascular / Pulmonary      372
 4 Orthopedic                      355
 5 Radiology                       273
 6 General Medicine                259
 7 Gastroenterology                230
 8 Neurology                       223
 9 SOAP / Chart / Progress Notes   166
10 Obstetrics / Gynecology         160
# ℹ 30 more rows
…
#5

The word “patient” was chosen as it appears in the top bigram phrase and the top 2 trigram phrases. This reveals several verbs that “patient” does or has done on themself, such as “denies” and “tolerated”.

mt_samples %>%
  unnest_tokens(bigram, transcription, token = "ngrams", n = 2) %>%
  separate(bigram, c("word1", "word2"), sep = " ") %>%
  filter(word1 == "patient" | word2 == "patient") %>%
  count(word1, word2, sort = T)

# A tibble: 856 × 3
   word1   word2         n
   <chr>   <chr>     <int>
 1 the     patient   20307
 2 patient was        6293
 3 patient is         3332
 4 patient has        1417
 5 patient tolerated   994
 6 patient had         888
 7 patient will        616
 8 patient denies      552
 9 this    patient     470
10 patient and         377
# ℹ 846 more rows
…
